<?xml version="1.0" encoding="utf-8"?>
<!-- Generator: Adobe Illustrator 16.0.3, SVG Export Plug-In . SVG Version: 6.00 Build 0)  -->
<!DOCTYPE svg PUBLIC "-//W3C//DTD SVG 1.1//EN" "http://www.w3.org/Graphics/SVG/1.1/DTD/svg11.dtd">
<svg version="1.1" id="Layer_1" xmlns="http://www.w3.org/2000/svg" xmlns:xlink="http://www.w3.org/1999/xlink" x="0px" y="0px"
	 width="1920px" height="462px" viewBox="0 0 1920 462" enable-background="new 0 0 1920 462" xml:space="preserve">
<g>
	<polygon fill="#F8F8F8" points="1254.595,269 1365.448,269 1310.021,133.52 	"/>
	<path fill="#F8F8F8" d="M0,0v462h1920V0H0z M314,312.441c0,80.139-58.191,125.107-145.239,125.107
		c-61.109,0-119.885-21.333-168.308-64.574l51.797-62.836c36.321,29.979,73.038,48.998,119.158,48.998
		c36.322,0,55.592-14.413,55.592-38.049v-1.152c0-22.483-12.316-34.018-79.768-51.311C65.942,247.868,15,225.384,15,145.246v-1.152
		c0-73.22,59.71-121.643,142.152-121.643c58.806,0,109.879,18.444,150.808,51.302l-46.554,66.886
		c-35.756-24.797-71.765-39.786-105.784-39.786S102,116.418,102,136.023v1.151c0,26.524,15.771,35.17,85.544,53.039
		C269.402,211.546,314,240.949,314,311.29V312.441z M682,433H372V317h87v29h223V433z M682,269H459v29h-87V162h87v29h223V269z
		 M682,114H459v29h-87V27h310V114z M1030,433H740V27h87v319h203V433z M1432.24,433l-35.454-87h-173.529l-35.454,87h-90.521
		l172.964-406h81.856l172.963,406H1432.24z M1919,433h-87V269h-164v164h-87V268.662v-67.66V27h87v164h164V27h87V433z"/>
</g>
</svg>
